<svg xmlns="http://www.w3.org/2000/svg" width="28" height="34" viewBox="0 0 14 17">
  <defs>
    <style>
      .cls-1 {
        fill: #058311;
        fill-rule: evenodd;
      }
    </style>
  </defs>
  <path class="cls-1" d="M317.272,2203.7a0.9,0.9,0,0,0,.91,1.13h4.241a0.9,0.9,0,0,0,.91-1.13h0a0.9,0.9,0,0,0-.91-1.13h-4.241a0.9,0.9,0,0,0-.91,1.13h0Zm-0.77,2.68a0.9,0.9,0,0,0,.91,1.13h5.675a0.9,0.9,0,0,0,.911-1.13h0a0.893,0.893,0,0,0-.911-1.13h-5.675c-0.767,0-.91.5-0.91,1.13h0Zm0.759,2.72a0.9,0.9,0,0,0,.91,1.13h4.476a0.9,0.9,0,0,0,.911-1.13h0a0.893,0.893,0,0,0-.911-1.13h-4.476c-0.767,0-.91.5-0.91,1.13h0Zm0.739,2.77a0.9,0.9,0,0,0,.91,1.13h2.55a0.9,0.9,0,0,0,.911-1.13h0a0.9,0.9,0,0,0-.911-1.13h-2.55a0.9,0.9,0,0,0-.91,1.13h0Zm-0.354.99a2.29,2.29,0,0,1,0-1.98,1.124,1.124,0,0,1,.228-0.25,1.253,1.253,0,0,1-.967-0.54,1.784,1.784,0,0,1-.225-0.99,1.741,1.741,0,0,1,.225-0.99,1.145,1.145,0,0,1,.168-0.21,1.2,1.2,0,0,1-.927-0.53,2.291,2.291,0,0,1,0-1.98,1.2,1.2,0,0,1,.9-0.53,1.078,1.078,0,0,1-.131-0.17,2.281,2.281,0,0,1,0-1.98,1.315,1.315,0,0,1,1.194-.55h0.864c0.089-.52,1.872-1.64,1.872-3.93,0-2.51-3.284-2.22-3.284-2.22v1.56c-0.576,1.73-4.4,4.41-5.483,5.14a3.082,3.082,0,0,0-2.079,2.85v3.82c0,1.98,1.972,3.58,4.4,3.58h3.313A0.9,0.9,0,0,1,317.646,2212.86Z" transform="translate(-310 -2196)"/>
</svg>
